{
    "code": "200",
    "message": "success",
    "data": {
        "pageNumber": 1,
        "pageSize": 20,
        "totalCount": 200,
        "totalPage": 10,
        "items": [
            {
                "singleId": "717011753652716344",
                "commodityId": "717011564091146853",
                "commodityName": "鲜活亮采红石榴二合一洁面乳",
                "name": "毫升",
                "standardValue": "125ml",
                "imgUrl": "https://other.weijianapp.com/artcloud-app-mgr-provider-user/20210626/fd8a8910-1ac9-409c-8b6c-dbfb387eaae8.png",
                "price": 139.00,
                "blackPrice": 135.00,
                "brandName": "ESTEE LAUDER/雅诗兰黛",
                "seriesName": null,
                "keyword": null,
                "payPersons": 7869,
                "stock": 10,
                "createTime": null,
                "type": 1,
                "directSupply": 0,
                "h5custom": "https://h5web.weijianapp.com/activity/845316821950137760",
                "backgroundUrl": "https://other.weijianapp.com/artcloud-app-mgr-provider-user/20210626/c84560b1-4483-48ad-849c-0a406c9a7ff3.png",
                "activityName": "闪电发货",
                "share": 1,
                "toPage": 100
            },
            {
                "singleId": "715211163574468648",
                "commodityId": "715209813075689494",
                "commodityName": "粉盘九宫格眼影盘",
                "name": "色号",
                "standardValue": "#Overtake/橘棕盘",
                "imgUrl": "https://other.weijianapp.com/artcloud-app-mgr-provider-user/20220106/5e534934-c8a2-4077-95f2-850e6b344d17.png",
                "price": 161.00,
                "blackPrice": 157.00,
                "brandName": "3CE",
                "seriesName": null,
                "keyword": null,
                "payPersons": 9440,
                "stock": 8,
                "createTime": null,
                "type": 0,
                "directSupply": 0,
                "h5custom": null,
                "backgroundUrl": null,
                "activityName": null,
                "share": null,
                "toPage": null
            },
            {
                "singleId": "718155832063166285",
                "commodityId": "718155832050583369",
                "commodityName": "光凝妆前霜长管隔离",
                "name": "容量",
                "standardValue": "37ml(2020新版)",
                "imgUrl": "https://other.weijianapp.com/artcloud-app-mgr-provider-user/20200604/b5b0f874-3159-40e7-a9e2-dd19f467161c.jpg",
                "price": 278.00,
                "blackPrice": 270.00,
                "brandName": "CPB/肌肤之钥",
                "seriesName": null,
                "keyword": null,
                "payPersons": 7431,
                "stock": 8,
                "createTime": null,
                "type": 0,
                "directSupply": 0,
                "h5custom": null,
                "backgroundUrl": null,
                "activityName": null,
                "share": null,
                "toPage": null
            },
            {
                "singleId": "715271807623498450",
                "commodityId": "714944731565526284",
                "commodityName": "子弹头唇膏口红3g",
                "name": "色号",
                "standardValue": "#510/Lady Bug 番茄红",
                "imgUrl": "https://other.weijianapp.com/artcloud-app-mgr-provider-user/20200527/37e884e4-ac5c-4f00-9cf5-0734da12daa4.jpg",
                "price": 129.00,
                "blackPrice": 126.00,
                "brandName": "MAC/魅可",
                "seriesName": null,
                "keyword": null,
                "payPersons": 14881,
                "stock": 10,
                "createTime": null,
                "type": 0,
                "directSupply": 0,
                "h5custom": null,
                "backgroundUrl": null,
                "activityName": null,
                "share": null,
                "toPage": null
            },
            {
                "singleId": "755827330932278496",
                "commodityId": "755827330919695579",
                "commodityName": "痘肌水乳",
                "name": "规格",
                "standardValue": "无油黄油125ml+菌菇水200ml ",
                "imgUrl": "https://other.weijianapp.com/artcloud-app-mgr-provider-user/20200916/ad3e7abe-f37f-4b98-89ff-6f33f94b213d.jpg",
                "price": 209.00,
                "blackPrice": 203.00,
                "brandName": "网红cp",
                "seriesName": null,
                "keyword": null,
                "payPersons": 8203,
                "stock": 8,
                "createTime": null,
                "type": 0,
                "directSupply": 0,
                "h5custom": null,
                "backgroundUrl": null,
                "activityName": null,
                "share": null,
                "toPage": null
            },
            {
                "singleId": "715296162554315022",
                "commodityId": "715296162537537801",
                "commodityName": "红丝绒唇膏口红3.4g",
                "name": "色号",
                "standardValue": "#N37/Rouge Graine 朱砂砖红",
                "imgUrl": "https://other.weijianapp.com/artcloud-app-mgr-provider-user/20200527/5e6c9f04-ae8d-4fcd-ad18-524f27da8396.jpg",
                "price": 142.00,
                "blackPrice": 138.00,
                "brandName": "GIVENCHY/纪梵希",
                "seriesName": null,
                "keyword": null,
                "payPersons": 9841,
                "stock": 9,
                "createTime": null,
                "type": 0,
                "directSupply": 0,
                "h5custom": null,
                "backgroundUrl": null,
                "activityName": null,
                "share": null,
                "toPage": null
            },
            {
                "singleId": "717308493446516459",
                "commodityId": "718155832050583369",
                "commodityName": "舒护活泉水喷雾",
                "name": "容量",
                "standardValue": "300ml",
                "imgUrl": "https://other.weijianapp.com/artcloud-app-mgr-provider-user/20220617/b3faf486-9416-4891-8fb7-edc63fada3f2.jpg",
                "price": 75.00,
                "blackPrice": 73.00,
                "brandName": "Acene/雅漾",
                "seriesName": null,
                "keyword": null,
                "payPersons": 5202,
                "stock": 9,
                "createTime": null,
                "type": 0,
                "directSupply": 0,
                "h5custom": null,
                "backgroundUrl": null,
                "activityName": null,
                "share": null,
                "toPage": null
            },
            {
                "singleId": "717072822475688079",
                "commodityId": "718155832050583369",
                "commodityName": "氨基酸系净润洗面奶",
                "name": "规格",
                "standardValue": "100g",
                "imgUrl": "https://other.weijianapp.com/artcloud-app-mgr-provider-user/20210825/367345cf-6cd6-420e-86d7-f6190a30e256.png",
                "price": 99.00,
                "blackPrice": 97.00,
                "brandName": "freeplus/芙丽芳丝",
                "seriesName": null,
                "keyword": null,
                "payPersons": 5231,
                "stock": 10,
                "createTime": null,
                "type": 1,
                "directSupply": 0,
                "h5custom": "https://h5web.weijianapp.com/activity/879790447810055753",
                "backgroundUrl": "https://other.weijianapp.com/artcloud-app-mgr-provider-user/20210825/6fe1c282-484a-4efd-b298-649c221210af.png",
                "activityName": "爆款洁面推荐",
                "share": 1,
                "toPage": 100
            },
            {
                "singleId": "718854484100384240",
                "commodityId": "718155832050583369",
                "commodityName": "光亮柔滑遮瑕蜜",
                "name": "色号",
                "standardValue": "#Vanilla/香草1232",
                "imgUrl": "https://other.weijianapp.com/artcloud-app-mgr-provider-user/20201106/de4822b9-d0a3-4b13-8c79-d193192ece0c.jpg",
                "price": 161.00,
                "blackPrice": 157.00,
                "brandName": "NARS/纳斯",
                "seriesName": null,
                "keyword": null,
                "payPersons": 5694,
                "stock": 9,
                "createTime": null,
                "type": 0,
                "directSupply": 0,
                "h5custom": null,
                "backgroundUrl": null,
                "activityName": null,
                "share": null,
                "toPage": null
            },
            {
                "singleId": "720592411381730617",
                "commodityId": "718155832050583369",
                "commodityName": "顺行柔和洁颜泡沫洗面奶",
                "name": "容量",
                "standardValue": "200ml",
                "imgUrl": "https://other.weijianapp.com/artcloud-app-mgr-provider-user/20220726/3ba5b241-c0bb-4269-84ea-0fb27d410123.png",
                "price": 95.00,
                "blackPrice": 93.00,
                "brandName": "Sulwhasoo/雪花秀",
                "seriesName": null,
                "keyword": null,
                "payPersons": 4999,
                "stock": 9,
                "createTime": null,
                "type": 0,
                "directSupply": 0,
                "h5custom": null,
                "backgroundUrl": null,
                "activityName": null,
                "share": null,
                "toPage": null
            },
            {
                "singleId": "718499944931001102",
                "commodityId": "718155832050583369",
                "commodityName": "倾色绒雾竖纹金管哑光唇膏3.5g",
                "name": "色号",
                "standardValue": "#505/Janet Rus",
                "imgUrl": "https://other.weijianapp.com/artcloud-app-mgr-provider-user/20200605/e6a5c7b1-ce09-4b74-944a-d6dd8b975f24.jpg",
                "price": 159.00,
                "blackPrice": 155.00,
                "brandName": "GUCCI/古驰",
                "seriesName": null,
                "keyword": null,
                "payPersons": 6801,
                "stock": 9,
                "createTime": null,
                "type": 0,
                "directSupply": 0,
                "h5custom": null,
                "backgroundUrl": null,
                "activityName": null,
                "share": null,
                "toPage": null
            },
            {
                "singleId": "717040881835705884",
                "commodityId": "718155832050583369",
                "commodityName": "面膜",
                "name": "规格",
                "standardValue": "保湿 5片/盒",
                "imgUrl": "https://other.weijianapp.com/artcloud-app-mgr-provider-user/20200611/b412e508-3550-416a-ab36-12b735221a38.jpg",
                "price": 59.00,
                "blackPrice": 58.00,
                "brandName": "Dr.Jart+/蒂佳婷",
                "seriesName": null,
                "keyword": null,
                "payPersons": 9315,
                "stock": 10,
                "createTime": null,
                "type": 0,
                "directSupply": 0,
                "h5custom": null,
                "backgroundUrl": null,
                "activityName": null,
                "share": null,
                "toPage": null
            },
            {
                "singleId": "741235683170977517",
                "commodityId": "718155832050583369",
                "commodityName": "樱花微精华露",
                "name": "规格",
                "standardValue": "200ml",
                "imgUrl": "https://other.weijianapp.com/artcloud-app-mgr-provider-user/20200807/c05c497b-350f-4f56-99bc-8d5a51212dc4.jpg",
                "price": 359.00,
                "blackPrice": 350.00,
                "brandName": "ESTEE LAUDER/雅诗兰黛",
                "seriesName": null,
                "keyword": null,
                "payPersons": 3302,
                "stock": 9,
                "createTime": null,
                "type": 0,
                "directSupply": 0,
                "h5custom": null,
                "backgroundUrl": null,
                "activityName": null,
                "share": null,
                "toPage": null
            },
            {
                "singleId": "715967479385427613",
                "commodityId": "718155832050583369",
                "commodityName": "亚马逊白泥面膜",
                "name": "容量",
                "standardValue": "125ml",
                "imgUrl": "https://other.weijianapp.com/artcloud-app-mgr-provider-user/20220614/9a114c5a-162e-4e8a-8f41-4d1a53367ebf.jpg",
                "price": 179.00,
                "blackPrice": 174.00,
                "brandName": "Kiehl's/科颜氏",
                "seriesName": null,
                "keyword": null,
                "payPersons": 7823,
                "stock": 10,
                "createTime": null,
                "type": 0,
                "directSupply": 0,
                "h5custom": null,
                "backgroundUrl": null,
                "activityName": null,
                "share": null,
                "toPage": null
            },
            {
                "singleId": "715624831789304309",
                "commodityId": "715624831768332779",
                "commodityName": "黑鸦片浓香水",
                "name": "容量",
                "standardValue": "30ml",
                "imgUrl": "https://other.weijianapp.com/artcloud-app-mgr-provider-user/20210723/a7bb9930-ccdf-4f18-8612-b6279d90db9c.png",
                "price": 356.00,
                "blackPrice": 346.00,
                "brandName": "Yves Saint Laurent/圣罗兰",
                "seriesName": null,
                "keyword": null,
                "payPersons": 7483,
                "stock": 20,
                "createTime": null,
                "type": 1,
                "directSupply": 0,
                "h5custom": "https://h5web.weijianapp.com/activity/758324634780176382",
                "backgroundUrl": "https://other.weijianapp.com/artcloud-app-mgr-provider-user/20210723/2384fc1e-dc91-498b-a11d-529363372537.png",
                "activityName": "热门口红合集",
                "share": 1,
                "toPage": 100
            },
            {
                "singleId": "746031660222382732",
                "commodityId": "718155832050583369",
                "commodityName": "脸部眼唇部紫胖子卸妆膏",
                "name": "规格",
                "standardValue": "125ml",
                "imgUrl": "https://other.weijianapp.com/artcloud-app-mgr-provider-user/20200820/7bb55a74-6523-4b38-8a47-51887046e605.jpg",
                "price": 129.00,
                "blackPrice": 126.00,
                "brandName": "CLINIQUE/倩碧",
                "seriesName": null,
                "keyword": null,
                "payPersons": 4543,
                "stock": 8,
                "createTime": null,
                "type": 0,
                "directSupply": 0,
                "h5custom": null,
                "backgroundUrl": null,
                "activityName": null,
                "share": null,
                "toPage": null
            },
            {
                "singleId": "718478906348273996",
                "commodityId": "718155832050583369",
                "commodityName": "AQMW柔光缎采蜜粉20g",
                "name": "色号",
                "standardValue": "#011/Luminary lvory ",
                "imgUrl": "https://other.weijianapp.com/artcloud-app-mgr-provider-user/20200901/1e4510e3-4304-4577-b28c-bbaec5fc03cb.png",
                "price": 196.00,
                "blackPrice": 191.00,
                "brandName": "COSME DECORTE/黛珂",
                "seriesName": null,
                "keyword": null,
                "payPersons": 7710,
                "stock": 10,
                "createTime": null,
                "type": 0,
                "directSupply": 0,
                "h5custom": null,
                "backgroundUrl": null,
                "activityName": null,
                "share": null,
                "toPage": null
            },
            {
                "singleId": "715577965714342681",
                "commodityId": "718155832050583369",
                "commodityName": "夜间保湿修护唇膜",
                "name": "规格",
                "standardValue": "甜莓味20g",
                "imgUrl": "https://other.weijianapp.com/artcloud-app-mgr-provider-user/20201105/6dcfddff-0494-42ea-948f-196eec651ed0.jpg",
                "price": 65.00,
                "blackPrice": 64.00,
                "brandName": "Laneige/兰芝",
                "seriesName": null,
                "keyword": null,
                "payPersons": 5511,
                "stock": 10,
                "createTime": null,
                "type": 0,
                "directSupply": 0,
                "h5custom": null,
                "backgroundUrl": null,
                "activityName": null,
                "share": null,
                "toPage": null
            },
            {
                "singleId": "718120722693620807",
                "commodityId": "718155832050583369",
                "commodityName": "高保湿清爽面霜",
                "name": "容量",
                "standardValue": "50ml",
                "imgUrl": "https://other.weijianapp.com/artcloud-app-mgr-provider-user/20200604/39d181b0-0706-4214-9f7e-994a8bec76e4.jpg",
                "price": 169.00,
                "blackPrice": 164.00,
                "brandName": "Kiehl's/科颜氏",
                "seriesName": null,
                "keyword": null,
                "payPersons": 6826,
                "stock": 9,
                "createTime": null,
                "type": 0,
                "directSupply": 0,
                "h5custom": null,
                "backgroundUrl": null,
                "activityName": null,
                "share": null,
                "toPage": null
            },
            {
                "singleId": "716256258671248184",
                "commodityId": "718155832050583369",
                "commodityName": "润浸保湿洁颜泡沫洗面奶",
                "name": "容量",
                "standardValue": "150ml",
                "imgUrl": "https://other.weijianapp.com/artcloud-app-mgr-provider-user/20200530/21cb46cb-6ceb-42db-8a5c-5fefb6d6db12.jpg",
                "price": 108.00,
                "blackPrice": 105.00,
                "brandName": "Curel/珂润",
                "seriesName": null,
                "keyword": null,
                "payPersons": 4758,
                "stock": 16,
                "createTime": null,
                "type": 0,
                "directSupply": 0,
                "h5custom": null,
                "backgroundUrl": null,
                "activityName": null,
                "share": null,
                "toPage": null
            }
        ]
    }
}