{
    "code": "200",
    "message": "success",
    "data": {
        "pageNumber": 1,
        "pageSize": 20,
        "totalCount": 260,
        "totalPage": 13,
        "items": [
            {
                "articleId": "1028320607609028828",
                "pictures": "https://other.weijianapp.com/artcloud-app-mgr-provider-user/20221008/3eb0f0a7-c193-434e-bc09-7d2bf97dee4e.png?x-oss-process=image/resize,m_fill,h_1095,w_720",
                "title": "【理肤泉B5面霜】真假鉴别‼️",
                "description": "",
                "content": "⚠️以下对比仅基于个人看法及相关了解。\n不排除个别鉴别点存在版本差异。\n只有此版本对比，其他版本仅供参考。\n请综合多个辨别点进行对比。\n文章实用期为3~4个月，过后请等待更新~\n♦️1、包装盒背面\n\"\"\n♦️2、 管身正面\n\"\"\n♦️3、管身正面\n\"\"\n♦️4、管身背面\n\"\"\n♦️5、翻盖\n\"\"\n📣以上仅供大家参考，假货版本很多无法一一做对比。\n美貌与智慧的小仙女们，都知道如何辨别了吗?\n我是小维，专注美妆鉴别；化妆品批号查询！为正品保驾护航！\n😘我们下一期再见~\n",
                "praiseAmount": 139,
                "browseAmount": 270,
                "operateUserName": "维鉴福利官",
                "operateHeadImg": "http://images.weijianapp.com/artcloud-app-mgr-provider-user/20200415/081e7496-7501-4e52-96f9-9e09d5ce4875.blob",
                "praise": false,
                "top": 0,
                "first": {
                    "url": "https://other.weijianapp.com/artcloud-app-mgr-provider-user/20221008/3eb0f0a7-c193-434e-bc09-7d2bf97dee4e.png",
                    "width": 720,
                    "height": 1095
                }
            },
            {
                "articleId": "867789804853526738",
                "pictures": "https://other.weijianapp.com/artcloud-app-mgr-provider-user/20210722/b9c776a6-b899-4f8e-b3b0-7190857fa101.png?x-oss-process=image/resize,m_fill,h_1095,w_720",
                "title": "【理肤泉B5多效修复面霜】真假鉴别‼️",
                "description": "",
                "content": "源自于🇫🇷法国的理肤泉，是欧莱雅旗下的品牌，法国三大药妆品牌之一。理肤泉B5修复霜主打修护，👉🏻针对皮肤干痒刺痛，起皮，泛红，痘痕，刷酸后的护理，可以✅强化皮肤屏障，✅舒缓镇定肌肤，起💦保湿作用。\n📣以下对比仅基于个人看法及相关了解。\n不排除个别鉴别点存在版本差异。\n仅限此版本对比，其他版本仅供参考。\n请综合多个辨别点进行对比。\n文章实用期为3~4个月，过后请等待更新~\n1、包装盒背面\n\"\"正品包装盒背面点状凸感显著。\n假货包装盒背面点状凸感较平。\n\n2、管身正面\n\"\"正品管身正面方块颜色较浅。\n假货管身正面方块颜色较深。\n\n3、管身正面\n\"\"正品管身正面字体整体偏细。\n假货管身正面字体整体偏粗。\n\n4、管身背面\n\"\"正品管身背面字体印刷清晰。\n假货管身背面字体印刷模糊。 \n\n5、翻盖\n\"\"正品翻盖底部同心圆是光滑材质。\n假货翻盖底部同心圆是雾面材质。1c40 \n\n⚠️以上仅供大家参考，假货版本很多无法一一做对比。\n美貌与智慧的小仙女们，都知道如何辨别了吗?\n我是小维，专注美妆鉴别；化妆品批号查询！！为正品保驾护航！\n如有鉴别问题请联系小维 ，😘我们下一期再见~",
                "praiseAmount": 511,
                "browseAmount": 2890,
                "operateUserName": "维鉴福利官",
                "operateHeadImg": "http://images.weijianapp.com/artcloud-app-mgr-provider-user/20200415/081e7496-7501-4e52-96f9-9e09d5ce4875.blob",
                "praise": false,
                "top": 0,
                "first": {
                    "url": "https://other.weijianapp.com/artcloud-app-mgr-provider-user/20210722/b9c776a6-b899-4f8e-b3b0-7190857fa101.png",
                    "width": 720,
                    "height": 1095
                }
            },
            {
                "articleId": "846794783631343894",
                "pictures": "https://other.weijianapp.com/artcloud-app-mgr-provider-user/20210525/1c7cc059-01f3-4c0b-82f2-1a2ea726ecf1.png?x-oss-process=image/resize,m_fill,h_1096,w_722",
                "title": "干皮亲妈❗科颜氏高保湿面霜真假鉴别🧐",
                "description": "",
                "content": "来自纽约医药专业品牌的科颜氏——以最温和却有效的护肤配方原则而响誉全球。其中【高保湿系列】自1970年推出以来，是不限男女、适用于各肤质的💯经典热卖品。\n【科颜氏高保湿面霜】是一款质地清爽的24小时日常保湿霜，使用后肌肤感觉舒适和明显地💧水份均衡；在吸取和吸收空气中的水气时，帮助肌肤减少水份的流失。\n⚠️以下对比仅基于个人看法及相关了解。\n不排除个别鉴别点存在版本差异。\n只有此版本对比，其他版本仅供参考。\n请综合多个辨别点进行对比。\n文章实用期为3~4个月，过后请等待更新~\n🔷 1、罐身侧面\n\"\"正品侧面贴纸裁剪整齐，没有分层。\n假货侧面贴纸裁剪有分层，底层明显较长。\n\n🔷2、罐身侧面\n\"\"正品条码与贴纸末端间隔一毫米多。\n假货条码与贴纸间隔四毫米，留有更多的空白。\n\n🔷3、罐身背面\n\"\"正品罐身背面“.”稍稍靠近字母C.\n假货罐身背面“.”紧贴字母C。\n\n🔷4、盖子内部\n\"\"正品盖子内部材质表面整洁且有清晰的纹理。\n假货盖子内部材质表面较杂乱没有纹理。\n\n🔷5、罐身底部\n\"\"正品底部有三个同心圆由不同的坡度构成。\n假货底部虽有同心圆，但圆� 54c8 �不够明显，没有坡度。\n假货底部的圆形不够明显，没有坡度。\n\n❗以上仅供大家参考，假货版本很多无法一一做对比。\n美貌与智慧的小仙女们，都知道如何辨别了吗?\n我是小维，专注美妆鉴别，为正品保驾护航！\n😘我们下一期再见~\n",
                "praiseAmount": 314,
                "browseAmount": 2957,
                "operateUserName": "维鉴福利官",
                "operateHeadImg": "http://images.weijianapp.com/artcloud-app-mgr-provider-user/20200415/081e7496-7501-4e52-96f9-9e09d5ce4875.blob",
                "praise": false,
                "top": 0,
                "first": {
                    "url": "https://other.weijianapp.com/artcloud-app-mgr-provider-user/20210525/1c7cc059-01f3-4c0b-82f2-1a2ea726ecf1.png",
                    "width": 722,
                    "height": 1096
                }
            },
            {
                "articleId": "871090528387597328",
                "pictures": "https://other.weijianapp.com/artcloud-app-mgr-provider-user/20210731/61e95247-5efa-4843-936e-7816c8ccc899.png?x-oss-process=image/resize,m_fill,h_1096,w_722",
                "title": "【欧舒丹甜蜜樱花润肤露】真假鉴别🧐",
                "description": "",
                "content": "今天给大家鉴别的是🌸【欧舒丹甜蜜樱花润肤露】。欧舒丹， 全称L'OCCITANE EN PROVENCE（法语发音：[lɔksiˈtan ɑ ̃pʁɔvɑ̃s]，👉🏻意即“普罗旺斯的欧舒丹”。Olivier Baussan先生于1976年创办欧舒丹。欧舒丹是一个根植普罗旺斯「传统」的品牌，一直强调独特法式「生活的艺术 」(art de vivre) 。\n⚠️以下对比仅基于个人看法及相关了解。\n不排除个别鉴别点存在版本差异。\n只有此版本对比，其他版本仅供参考。\n请综合多个辨别点进行对比。\n文章实用期为3~4个月，过后请等待更新~\n🔻1、瓶身正面\n\"\"正品瓶身正面贴纸里的花朵是浅粉色。\n假货瓶身正面贴纸里的花朵是浅黄色。\n\n🔻2、瓶身背面\n\"\"正品瓶身背面字体较粗颜色深。\n假货瓶身背面字体较细颜色浅。\n\n🔻3、瓶身侧面\n\"\"正品瓶身侧面叶子做工精致。\n假货瓶身侧面叶子做工粗糙。 \n\n🔻4、瓶口螺纹\n\"\"正品瓶口螺纹末端较粗。\n假货瓶口螺纹末端较尖细。\n\n🔻5、质地\n\"\"正品质地滋润，带细闪。\n假货质地较稀，没有带细闪。\n\n📣以上仅供大家参考，假货版本很多无法一一做对比。\n美貌与智慧的小仙女们，都知道如何辨别了吗?\n我是小维，专注美妆鉴别；化妆品批号查询！！为正品保驾护航！\n😘我们下一期再见~\n",
                "praiseAmount": 207,
                "browseAmount": 515,
                "operateUserName": "维鉴福利官",
                "operateHeadImg": "http://images.weijianapp.com/artcloud-app-mgr-provider-user/20200415/081e7496-7501-4e52-96f9-9e09d5ce4875.blob",
                "praise": false,
                "top": 0,
                "first": {
                    "url": "https://other.weijianapp.com/artcloud-app-mgr-provider-user/20210731/61e95247-5efa-4843-936e-7816c8ccc899.png",
                    "width": 722,
                    "height": 1096
                }
            },
            {
                "articleId": "843850535814565186",
                "pictures": "https://other.weijianapp.com/artcloud-app-mgr-provider-user/20210517/5ad0786e-cc23-41ba-82b2-b2390d9881e4.png?x-oss-process=image/resize,m_fill,h_1096,w_722",
                "title": "科颜氏牛油果🥑面膜真假鉴别❗",
                "description": "",
                "content": "科颜氏牛油果保湿面膜是一款涂抹式面膜，主打保湿以及增强肌肤屏障。\n这款面膜添加了牛油果🥑精粹和月见草🌿，不仅能迅速给肌肤养分保湿补水，改善因熬夜带来的暗沉和粗糙；还能减缓肌肤老化，使肌肤更加透亮。 \n⬇️以下对比仅基于个人看法及相关了解。\n不排除个别鉴别点存在版本差异。\n只有此版本对比，其他版本仅供参考。\n请综合多个辨别点进行对比。\n文章实用期为3~4个月，过后请等待更新~\n🔻1、瓶身正面字体\n\"\"正品瓶身正面字母“A”的小三角占比较大。\n假货瓶身正面字母“A”的小三角占比较小。\n\n🔻2、瓶身背面标识\n\"\"正品背面标识线条较细。\n假货背面标识线条较粗。\n\n🔻3、瓶身侧面\n\"\"正品瓶身侧面与膏体比较贴近。\n假货瓶身侧面与膏体有较宽的镂空。\n\n🔻4、盖内封层纸\n\"\"正品盖内封层纸亮面的材质。\n假货盖内封层纸偏磨砂的材质。\n\n🔻5、膏体质地\n\"\"正品膏体质地较湿，颜色偏黄。\n假货膏体质地较干，颜色偏绿。\n\n⚠️以上仅供大家参考，假货版本很多无法一一做对比。\n美貌与智慧的小仙女们，都知道如何辨别了吗?\n我是小维，专注美妆鉴别，为正品保驾护航！\n😘我们下一期再见~\n",
                "praiseAmount": 239,
                "browseAmount": 502,
                "operateUserName": "维鉴福利官",
                "operateHeadImg": "http://images.weijianapp.com/artcloud-app-mgr-provider-user/20200415/081e7496-7501-4e52-96f9-9e09d5ce4875.blob",
                "praise": false,
                "top": 0,
                "first": {
                    "url": "https://other.weijianapp.com/artcloud-app-mgr-provider-user/20210517/5ad0786e-cc23-41ba-82b2-b2390d9881e4.png",
                    "width": 722,
                    "height": 1096
                }
            },
            {
                "articleId": "932587603251694951",
                "pictures": "https://other.weijianapp.com/artcloud-app-mgr-provider-user/20220117/b76513ea-bd44-45b8-bb2e-c0495ac2d421.png?x-oss-process=image/resize,m_fill,h_1095,w_720",
                "title": "【娇韵诗棉花籽洁面乳】真假鉴别‼️",
                "description": "",
                "content": "⬇️以下对比仅基于个人看法及相关了解。\n不排除个别鉴别点存在版本差异。\n只有此版本对比，其他版本仅供参考。\n请综合多个辨别点进行对比。\n文章实用期为3~4个月，过后请等待更新~\n🔻1、瓶身LOGO\n\"\"正品瓶身LOGO字母表面呈磨砂状。\n假货瓶身LOGO字母表面光滑。\n\n🔻2、管尾\n\"\"正品管尾红标较长。\n假货管尾红标略短。\n \n🔻3、管尾封口处\n\"\"正品管尾封口处缝隙间隔密集。\n假货管尾封口处缝隙间隔稀疏。\n\n🔻4、管身背面\n\"\"正品管身背面开封标志盖子空白处较窄。\n假货管身背面开封标志盖子空白处较宽。\n\n🔻5、盖子边缘\n\"\"正品盖子边缘一周有线圈。\n假货盖子边缘一周无线圈。\n\n🔻6、开合关节\n\"\"正品开合关节上方有长条状。\n假货开合关节上方细节丢失。\n\n🔻7、卡扣\n\"\"正品卡扣形状线条流畅。\n假货卡扣形状线条不平整\n\n📣以上仅供大家参考，假货版本很多无法一一做对比。\n美貌与智慧的小仙女们，都知道如何辨别了吗?\n我是小维，专注美妆鉴别；化妆品批号查询！为正品保驾护航！\n😘我们下一期再见~\n",
                "praiseAmount": 186,
                "browseAmount": 556,
                "operateUserName": "维鉴福利官",
                "operateHeadImg": "http://images.weijianapp.com/artcloud-app-mgr-provider-user/20200415/081e7496-7501-4e52-96f9-9e09d5ce4875.blob",
                "praise": false,
                "top": 0,
                "first": {
                    "url": "https://other.weijianapp.com/artcloud-app-mgr-provider-user/20220117/b76513ea-bd44-45b8-bb2e-c0495ac2d421.png",
                    "width": 720,
                    "height": 1095
                }
            },
            {
                "articleId": "984855620182082061",
                "pictures": "https://other.weijianapp.com/artcloud-app-mgr-provider-user/20220610/c252ace1-b4fe-4a69-bbe9-30968cad024b.png?x-oss-process=image/resize,m_fill,h_1095,w_720",
                "title": "【海蓝之谜精粹水新版】真假鉴别‼️",
                "description": "",
                "content": "📣以下对比仅基于个人看法及相关了解。\n不排除个别鉴别点存在版本差异。\n只有此版本对比，其他版本仅供参考。\n请综合多个辨别点进行对比。\n文章实用期为3~4个月，过后请等待更新~\n♦️1、液体\n\"\"\n正品摇晃后液体产生气泡\n仿品摇晃后液体气泡是点状\n\n♦️2、瓶身背面\n\"\"\n正品瓶身背面字体较细\n仿品瓶身背面字体较粗\n\n♦️3、瓶盖\n\"\"\n正品瓶盖呈雾面\n仿品瓶盖呈亮面\n\n♦️4、 密封贴纸\n\"\"\n正品密封贴纸张贴整齐\n仿品密封贴纸很多褶皱\n\n♦️5、瓶颈\n\"\"\n正品瓶颈呈翠绿色\n仿品瓶颈呈墨绿色\n\n♦️6、盖内螺纹\n\"\"\n正品盖内螺纹头部较粗\n仿品盖内螺纹头部较尖 \n\n\n⚠️以上仅供大家参考，假货版本很多无法一一做对比。\n美貌与智慧的小仙女们，都知道如何辨别了吗?\n我是小维，专注美妆鉴别；化妆品批号查询！！为正品保驾护航！\n😘我们下一期再见~ \n",
                "praiseAmount": 343,
                "browseAmount": 2795,
                "operateUserName": "维鉴福利官",
                "operateHeadImg": "http://images.weijianapp.com/artcloud-app-mgr-provider-user/20200415/081e7496-7501-4e52-96f9-9e09d5ce4875.blob",
                "praise": false,
                "top": 0,
                "first": {
                    "url": "https://other.weijianapp.com/artcloud-app-mgr-provider-user/20220610/c252ace1-b4fe-4a69-bbe9-30968cad024b.png",
                    "width": 720,
                    "height": 1095
                }
            },
            {
                "articleId": "965565368787534251",
                "pictures": "https://other.weijianapp.com/artcloud-app-mgr-provider-user/20220418/f1225cdf-b3dc-4261-8960-190b836e913a.png?x-oss-process=image/resize,m_fill,h_1095,w_720",
                "title": "【雅诗兰黛沁水粉底液】真假鉴别‼️",
                "description": "",
                "content": "📣以下对比仅基于个人看法及相关了解。\n不排除个别鉴别点存在版本差异。\n只有此版本对比，其他版本仅供参考。\n请综合多个辨别点进行对比。\n文章实用期为3~4个月，过后请等待更新~\n♦️1、包装盒批号\n\"\"正品包装盒批号字体印刷较细。\n假货包装盒批号字体印刷较粗。\n\n♦️2、瓶身正面\n\"\"正品瓶身正面字体较细。\n假货瓶身正面字体较粗。\n\n♦️3、瓶盖\n\"\"正品瓶盖金边转角棱角明显。\n假货瓶盖金边转角棱角线条模糊。\n\n♦️4、瓶底贴纸\n\"\"正品瓶底贴纸细闪明显。\n假货瓶底贴纸没有细闪效果，整体较暗。\n\n♦️5、盖内\n\"\"正品盖内底面呈雾面。\n假货盖内底面呈亮面。\n\n♦️6、盖内边缘\n\"\"正品盖内边缘有两层。\n假货盖内边缘没有分层。\n\n♦️7、按压头\n\"\"正品按压头边缘衔接自然。\n假货按压头边缘衔接生硬。\n\n以上仅供大家参考，假货版本很多无法一一做对比。\n美貌与智慧的小仙女们，都知道如何辨别了吗?\n我是小维，专注美妆鉴别；化妆品批号查询！！为正品保驾护航！\n😘我们下一期再见~\n\n",
                "praiseAmount": 264,
                "browseAmount": 1122,
                "operateUserName": "维鉴福利官",
                "operateHeadImg": "http://images.weijianapp.com/artcloud-app-mgr-provider-user/20200415/081e7496-7501-4e52-96f9-9e09d5ce4875.blob",
                "praise": false,
                "top": 0,
                "first": {
                    "url": "https://other.weijianapp.com/artcloud-app-mgr-provider-user/20220418/f1225cdf-b3dc-4261-8960-190b836e913a.png",
                    "width": 720,
                    "height": 1095
                }
            },
            {
                "articleId": "840592014335541301",
                "pictures": "https://other.weijianapp.com/artcloud-app-mgr-provider-user/20210508/203d23fc-5b19-4942-a005-325a6cac4ce7.png?x-oss-process=image/resize,m_fill,h_1096,w_722",
                "title": "抗初老精华❗雅诗兰黛第七代小棕瓶真假鉴别🧐",
                "description": "",
                "content": "雅诗兰黛1982年发明了世界上第一款「修护型」精华液，倡导应该彻底修护受损的肌肤细胞；并让肌肤天然防御系统能够恢复正常运作；肌肤就可以更健康，更能吸收养分。\n☀️白天肌肤做好防御保护，🌙夜晚则是进行修护保养。\n小棕瓶兼具了日间防护、夜间修护的全面养护效果。\n主要功效:✅保湿修复、✅加快新陈代谢、✅抗初老、✅舒缓维稳。\n⚠️以下对比仅基于个人看法及相关了解。\n不排除个别鉴别点存在版本差异。\n只有此版本对比，其他版本仅供参考。\n请综合多个辨别点进行对比。\n文章实用期为3~4个月，过后请等待更新~\n🔶1、盒身防震纸\n\"\"正品盒身防震纸颜色较白。\n假货盒身防震纸发黄。\n\n🔶2、瓶身背面\n\"\"正品瓶身背面字体较细，刻印清晰。\n假货瓶身背面字体个别有拉花，刻印模糊。\n\n🔶3、瓶颈\n\"\"正品瓶颈颜色呈棕色且渐变。\n假货瓶颈颜色为黑棕色，渐变效果不明显。\n\n🔶4、滴管\n\"\"正品滴管头部较粗。\n假货滴管头部较细。\n\n🔶5、瓶身底部\n\"\"正品瓶身底部高低几乎一致。\n假货瓶身底部高低不一致。\n\n❗以上仅供大家参考，假货版本很多无法一一做对比。\n美貌与智慧的小仙女们，都知道如何辨别了吗?\n我是小维，专注美妆鉴别，为正品保驾护航！\n😘我们下一期再见~\n",
                "praiseAmount": 811,
                "browseAmount": 5224,
                "operateUserName": "维鉴福利官",
                "operateHeadImg": "http://images.weijianapp.com/artcloud-app-mgr-provider-user/20200415/081e7496-7501-4e52-96f9-9e09d5ce4875.blob",
                "praise": false,
                "top": 0,
                "first": {
                    "url": "https://other.weijianapp.com/artcloud-app-mgr-provider-user/20210508/203d23fc-5b19-4942-a005-325a6cac4ce7.png",
                    "width": 722,
                    "height": 1096
                }
            },
            {
                "articleId": "880753840293413634",
                "pictures": "https://other.weijianapp.com/artcloud-app-mgr-provider-user/20210922/55273bcf-d59c-40aa-b5c1-a767585e839e.png?x-oss-process=image/resize,m_fill,h_1096,w_722",
                "title": "【OLAY玉兰油淡斑小白瓶ProX】真假鉴别❗",
                "description": "",
                "content": "玉兰油（OLAY）是🇺🇸美国护肤品牌，始于1952年，属于宝洁公司旗下。淡斑小白瓶：全称为👉🏻“ProX亮洁皙颜祛斑精华液”。主要采用了✅“烟酰胺+Sepiwhite美白因子”的成分搭配和✅“烟酰胺+糖海带”的组合。\n💡以下对比仅基于个人看法及相关了解。\n不排除个别鉴别点存在版本差异。\n只有此版本对比，其他版本仅供参考。\n请综合多个辨别点进行对比。\n文章实用期为3~4个月，过后请等待更新~\n🔷 1、包装盒LOGO\n\"\"正品包装盒LOGO红圈处没有银色描边。\n假货包装盒LOGO红圈处有银色描边。\n\n🔷2、滴管捏头\n\"\"正品滴管捏头是橡皮材质。\n假货滴管捏头是软塑料材质。\n\n🔷3、瓶口\n\"\"正品瓶口内塞胶圈较厚。\n假货瓶口内塞胶圈较薄。\n\n🔷4、滴管头部\n\"\"正品滴管头部较粗。\n假货滴管头部较尖细。\n\n🔷5、质地\n\"\"正品质地较稀。\n假货质地较稠。\n\n⚠️以上仅供大家参考，假货版本很多无法一一做对比。\n美貌与智慧的小仙女们，都知道如何辨别了吗?\n我是小维，专注美妆鉴别；化妆品批号查询！！为正品保驾护航！\n😘我们下一期再见~\n",
                "praiseAmount": 309,
                "browseAmount": 1400,
                "operateUserName": "维鉴福利官",
                "operateHeadImg": "http://images.weijianapp.com/artcloud-app-mgr-provider-user/20200415/081e7496-7501-4e52-96f9-9e09d5ce4875.blob",
                "praise": false,
                "top": 0,
                "first": {
                    "url": "https://other.weijianapp.com/artcloud-app-mgr-provider-user/20210922/55273bcf-d59c-40aa-b5c1-a767585e839e.png",
                    "width": 722,
                    "height": 1096
                }
            },
            {
                "articleId": "948607525601674603",
                "pictures": "https://other.weijianapp.com/artcloud-app-mgr-provider-user/20220302/9f5a4037-27a0-49ce-a05a-4b8e340a8fde.png?x-oss-process=image/resize,m_fill,h_1095,w_720",
                "title": "【NARS腮红#深喉】真假鉴别‼️",
                "description": "",
                "content": "📣以下对比仅基于个人看法及相关了解\n不排除个别鉴别点存在版本差异\n只有此版本对比，其他版本仅供参考\n请综合多个辨别点进行对比\n文章实用期为3~4个月，过后请等待更新\n🔻 1、包装盒正面\n\"\"正品包装盒正面红圈内字体是分离的\n假货包装盒正面红圈内字体是粘黏的\n\n🔻 2、包装盒内层\n\"\"正品包装盒内层呈哑光\n假货包装盒内层会反光\n\n🔻 3、底部\n\"\"正品底部批号是喷码\n假货底部批号是印刷\n\n🔻 4、镜子\n\"\"正品镜子表面没有塑料膜\n假货镜子表面附层塑料膜\n\n🔻 5、盘身边缘\n\"\"正品盘身边缘呈磨砂\n假货盘身边缘呈光滑\n\n🔻 6、粉质\n\"\"正品粉质表面网格细致\n假货粉质表面网格粗糙，容易飞粉\n\n⬆️以上仅供大家参考，假货版本很多无法一一做对比。\n美貌与智慧的小仙女们，都知道如何辨别了吗?\n我是小维，专注美妆鉴别；化妆品批号查询！！为正品保驾护航！\n😘我们下一期再见~\n\n",
                "praiseAmount": 198,
                "browseAmount": 1316,
                "operateUserName": "维鉴福利官",
                "operateHeadImg": "http://images.weijianapp.com/artcloud-app-mgr-provider-user/20200415/081e7496-7501-4e52-96f9-9e09d5ce4875.blob",
                "praise": false,
                "top": 0,
                "first": {
                    "url": "https://other.weijianapp.com/artcloud-app-mgr-provider-user/20220302/9f5a4037-27a0-49ce-a05a-4b8e340a8fde.png",
                    "width": 720,
                    "height": 1095
                }
            },
            {
                "articleId": "890201557713292490",
                "pictures": "https://other.weijianapp.com/artcloud-app-mgr-provider-user/20210922/a27f1164-e88d-4b7b-b7b8-93bd5f467270.png?x-oss-process=image/resize,m_fill,h_1095,w_720",
                "title": "【雅诗兰黛眼霜（小样）】真假鉴别❗",
                "description": "",
                "content": "雅诗兰黛集团由👉🏻雅诗·兰黛和约瑟夫·兰黛始创于1946年。雅诗兰黛眼霜于1982年推出，第一款产品是Night Repair，✅用于改善黑眼圈和浮肿。2002年，【眼部修护精华霜】汇集特润修护露配方的所有精华与功效，将眼部护理⤴️升级为眼部修护。\n⚠️以下对比仅基于个人看法及相关了解。\n不排除个别鉴别点存在版本差异。\n只有此版本对比，其他版本仅供参考。\n请综合多个辨别点进行对比。\n文章实用期为3~4个月，过后请等待更新~\n🔷1、瓶身正面\n\"\"正品瓶身正面字体较细，印刷工整。\n假货瓶身正面字体较粗，印刷粗糙。\n\n🔷2、瓶身材质\n\"\"正品瓶身材质较通透。\n假货瓶身材质不透光。\n\n🔷3、底部\n\"\"正品底部颗粒细腻。\n假货底部颗粒粗糙。\n\n🔷4、盖内\n\"\"正品盖子内壁呈透明偏乳白色。\n假货盖子内壁呈透明偏银色。\n \n🔷5、质地\n\"\"正品质地呈淡黄色，质地较稠。\n假货质地呈浅棕色，质地较稀。\n\n📣以上仅供大家参考，假货版本很多无法一一做对比\n美貌与智慧的小仙女们，都知道如何辨别了吗?\n我是小维，专注美妆鉴别；化妆品批号查询！！为正品保驾护航！\n😘我们下一期再见~\n",
                "praiseAmount": 394,
                "browseAmount": 1886,
                "operateUserName": "维鉴福利官",
                "operateHeadImg": "http://images.weijianapp.com/artcloud-app-mgr-provider-user/20200415/081e7496-7501-4e52-96f9-9e09d5ce4875.blob",
                "praise": false,
                "top": 0,
                "first": {
                    "url": "https://other.weijianapp.com/artcloud-app-mgr-provider-user/20210922/a27f1164-e88d-4b7b-b7b8-93bd5f467270.png",
                    "width": 720,
                    "height": 1095
                }
            },
            {
                "articleId": "954408274554259257",
                "pictures": "https://other.weijianapp.com/artcloud-app-mgr-provider-user/20220318/bd2e940d-0ead-4250-813b-e87349414e18.png?x-oss-process=image/resize,m_fill,h_1095,w_720",
                "title": "【花西子空气蜜粉散粉】真假鉴别 ‼️",
                "description": "",
                "content": "⚠️以下对比仅基于个人看法及相关了解。\n不排除个别鉴别点存在版本差异。\n只有此版本对比，其他版本仅供参考。\n请综合多个辨别点进行对比。\n文章实用期为3~4个月，过后请等待更新~\n🔷1、盖子LOGO\n\"\"正品盖子LOGO“花”间隔较近。\n假货盖子LOGO“花”间隔较远。\n\n🔷2、底标LOGO\n\"\"正品底标LOGO线条细，细节清晰。\n假货底标LOGO线条粗，细节丢失。\n\n🔷3、盖内锯齿\n\"\"正品盖内锯齿间缝较大。\n假货盖内锯齿间缝较小。\n\n🔷4、粉扑\n\"\"正品粉扑丝带边缘整齐。\n假货粉扑丝带边缘杂乱。\n\n🔷5、出粉孔\n\"\"正品出粉孔小，较细腻。\n假货出粉孔大，漏粉严重。\n\n🔷6、塑封层\n\"\"正品塑封层材质偏向布料。\n假货塑封层材质是厚实的卡纸。\n\n📢以上仅供大家参考，假货版本很多无法一一做对比。\n美貌与智慧的小仙女们，都知道如何辨别了吗?\n我是小维，专注美妆鉴别；化妆品批号查询！！为正品保驾护航！\n😘我们下一期再见~\n\n",
                "praiseAmount": 171,
                "browseAmount": 579,
                "operateUserName": "维鉴福利官",
                "operateHeadImg": "http://images.weijianapp.com/artcloud-app-mgr-provider-user/20200415/081e7496-7501-4e52-96f9-9e09d5ce4875.blob",
                "praise": false,
                "top": 0,
                "first": {
                    "url": "https://other.weijianapp.com/artcloud-app-mgr-provider-user/20220318/bd2e940d-0ead-4250-813b-e87349414e18.png",
                    "width": 720,
                    "height": 1095
                }
            },
            {
                "articleId": "876829393983373415",
                "pictures": "https://other.weijianapp.com/artcloud-app-mgr-provider-user/20210816/4c3c2a8b-deb1-4b51-acd7-e15d3019729f.png?x-oss-process=image/resize,m_fill,h_1095,w_720",
                "title": "【摩洛哥护发修复精油】真假鉴别🧐",
                "description": "",
                "content": "Moroccanoil的创始人 Carmen Tal于2009年创立该品牌，并推出首款产品👉🏻【摩洛哥油护发精油】。这款精油可以✅帮助毛鳞片闭合；✅维护发丝角蛋白，提供头发所需营养；✅抚平毛糙修复受损发质，补充水分不油腻。\n💡以下对比仅基于个人看法及相关了解。\n不排除个别鉴别点存在版本差异。\n只有此版本对比，其他版本仅供参考。\n请综合多个辨别点进行对比。\n文章实用期为3~4个月，过后请等待更新~\n🔷 1、瓶身LOGO\n\"\"正品瓶身LOGO由网格状构成。\n假货瓶身LOGO是普通印刷。\n\n🔷2、瓶身正面\n\"\"正品瓶身正面字体圆润，较粗。\n假货瓶身正面字体生硬，较细。\n\n🔷3、瓶身材质\n\"\"正品瓶身材质较通透。\n假货瓶身材质不透光。\n\n🔷4、瓶身侧面\n\"\"正品瓶身侧面字体较圆润。\n假货瓶身侧面字体较生硬。\n\n🔷5、底部\n\"\"正品底部周围纹理浅。\n假货底部周围纹理深。\n\n📣以上仅供大家参考，假货版本很多无法一一做对比。\n美貌与智慧的小仙女们，都知道如何辨别了吗?\n我是小维，专注美妆鉴别；化妆品批号查询！！为正品保驾护航！\n😘我们下一期再见~\n",
                "praiseAmount": 113,
                "browseAmount": 386,
                "operateUserName": "维鉴福利官",
                "operateHeadImg": "http://images.weijianapp.com/artcloud-app-mgr-provider-user/20200415/081e7496-7501-4e52-96f9-9e09d5ce4875.blob",
                "praise": false,
                "top": 0,
                "first": {
                    "url": "https://other.weijianapp.com/artcloud-app-mgr-provider-user/20210816/4c3c2a8b-deb1-4b51-acd7-e15d3019729f.png",
                    "width": 720,
                    "height": 1095
                }
            },
            {
                "articleId": "1005483059845269026",
                "pictures": "https://other.weijianapp.com/artcloud-app-mgr-provider-user/20220806/2fa39fb1-d04e-4b6f-88c0-cb0aeddb64f8.png?x-oss-process=image/resize,m_fill,h_1096,w_722",
                "title": "【雅诗兰黛小棕瓶精华】真假鉴别‼️",
                "description": "",
                "content": "💡以下对比仅基于个人看法及相关了解。\n不排除个别鉴别点存在版本差异。\n只有此版本对比，其他版本仅供参考。\n请综合多个辨别点进行对比。\n文章实用期为3~4个月，过后请等待更新~\n🔻1、包装盒正面\n\"\"字体墨深\n字体墨浅\n🔻2、包装盒侧面\n\"\"字体墨深\n字体墨浅\n🔻3、瓶身背面\n\"\"字体清晰\n字体粗糙，拉花\n🔻4、捏头\n\"\"捏头整齐\n捏头歪斜\n🔻5、盖子边缘\n\"\"盖内边缘外侧较短\n盖内边缘外侧较长\n🔻6、荧光测试\n\"\"瓶口没荧光反应\n瓶口有较强烈的荧光反应\n\n⚠️以上仅供大家参考，假货版本很多无法一一做对比。\n美貌与智慧的小仙女们，都知道如何辨别了吗?\n我是小维，专注美妆鉴别；化妆品批号查询！！为正品保驾护航！\n😘我们下一期再见~\n",
                "praiseAmount": 347,
                "browseAmount": 2363,
                "operateUserName": "维鉴福利官",
                "operateHeadImg": "http://images.weijianapp.com/artcloud-app-mgr-provider-user/20200415/081e7496-7501-4e52-96f9-9e09d5ce4875.blob",
                "praise": false,
                "top": 0,
                "first": {
                    "url": "https://other.weijianapp.com/artcloud-app-mgr-provider-user/20220806/2fa39fb1-d04e-4b6f-88c0-cb0aeddb64f8.png",
                    "width": 722,
                    "height": 1096
                }
            },
            {
                "articleId": "869237801063809669",
                "pictures": "https://other.weijianapp.com/artcloud-app-mgr-provider-user/20210726/280413ba-9c9d-419c-9b35-283d668f79ef.png?x-oss-process=image/resize,m_fill,h_1095,w_720",
                "title": "【苏秘37°惊喜水分气垫】真假鉴别🧐",
                "description": "",
                "content": "苏秘37°是LG生活健康株式会社旗下的高端自然发酵化妆品品牌，2016年入驻中国。苏秘寓意着生命苏醒的㊙️秘密，37°是在杉木桶里发酵成熟的最佳温度。苏秘sum37°惊喜水分气垫是👉🏻su:m37呼吸家人气很高的一款气垫，💦补水清爽不油腻，非常适合夏天使用。只要肤色不是太黑的小仙女都可以选择✅1号色，1号是🔥热卖色号。上脸自然服帖，油皮/混油皮的姐妹可以考虑入手哦~\n📣以下对比仅基于个人看法及相关了解。\n不排除个别鉴别点存在版本差异。\n只有此版本对比，其他版本仅供参考。\n请综合多个辨别点进行对比。\n文章实用期为3~4个月，过后请等待更新 。\n♦️1、盒身LOGO\n\"\"正品盒身LOGO印刷清晰。\n假货盒身LOGO印刷模糊。\n\n♦️2、盒身\n\"\"正品盒身侧边缝隙较尖。\n假货盒身侧边缝隙较平。\n\n♦️3、外层转轴\n\"\"正品外层转轴做工较精细。\n假货外层转轴做工较粗糙。\n\n♦️4、内层转轴\n\"\"正品内层转轴有数字编码。\n假货内层转轴无数字编码。\n\n♦️5、粉扑\n\"\"正品粉扑带子颜色较浅。\n假货粉扑带子颜色较深。\n\n💡以上仅供大家参考，假货版本很多无法一一做对比。\n美貌与智慧的小仙女们，都知道如何辨别了吗?\n我是小维，专注美妆鉴别；化妆品批号查询！！为正品保驾护航！\n😘我们下一期再见~\n",
                "praiseAmount": 112,
                "browseAmount": 279,
                "operateUserName": "维鉴福利官",
                "operateHeadImg": "http://images.weijianapp.com/artcloud-app-mgr-provider-user/20200415/081e7496-7501-4e52-96f9-9e09d5ce4875.blob",
                "praise": false,
                "top": 0,
                "first": {
                    "url": "https://other.weijianapp.com/artcloud-app-mgr-provider-user/20210726/280413ba-9c9d-419c-9b35-283d668f79ef.png",
                    "width": 720,
                    "height": 1095
                }
            },
            {
                "articleId": "789130789777312421",
                "pictures": "https://other.weijianapp.com/artcloud-app-mgr-provider-user/20201217/facd2021-efba-456f-bc6c-06f2bcb12aa9.jpg?x-oss-process=image/resize,m_fill,h_800,w_800;https://other.weijianapp.com/artcloud-app-mgr-provider-user/20201217/b583c9cb-a7f7-4047-a704-03a88c886fbc.png;https://other.weijianapp.com/artcloud-app-mgr-provider-user/20201217/30bd0bc3-2006-4ef1-a35e-17306f70014c.png;https://other.weijianapp.com/artcloud-app-mgr-provider-user/20201217/87bcafd5-2c52-40d8-a364-346611932ba3.png;https://other.weijianapp.com/artcloud-app-mgr-provider-user/20201217/661dc6db-1442-4876-b505-0fab790d0a42.png;https://other.weijianapp.com/artcloud-app-mgr-provider-user/20201217/029d4560-f30e-4273-851c-866a6570c8fd.png;https://other.weijianapp.com/artcloud-app-mgr-provider-user/20201217/6766cbcf-51c5-4d50-a5e0-b5a894709699.png;https://other.weijianapp.com/artcloud-app-mgr-provider-user/20201217/9c3f75a8-c81d-446e-91a8-45339a3a62dd.png",
                "title": "明星精华！雅诗兰黛小棕瓶真假鉴别！🧐",
                "description": "",
                "content": "本次鉴别雅诗兰黛第7代小棕瓶，一个美版和英版，总结出来的鉴别点无英美版本区别。\n👉鉴别tips：\n1、基础外观对比鉴别已总结在上图，可评论中提问，小维也会及时回复哒。\n2、液体颜色略有区别，颜色深浅不同成分含量可能存在不同\n👉维鉴App已经上线实物鉴别功能，欢迎体验。\n👉为防止假货改版，某些鉴别点不公布，如自己无法确定真假，建议前往维鉴App进行专业鉴别。\n❗仅限此版本对比参考，仅限外包装对比，请综合多个点进行对比鉴别，实用期为3~4个月，过后请等待更新。",
                "praiseAmount": 879,
                "browseAmount": 6355,
                "operateUserName": "维鉴福利官",
                "operateHeadImg": "http://images.weijianapp.com/artcloud-app-mgr-provider-user/20200415/081e7496-7501-4e52-96f9-9e09d5ce4875.blob",
                "praise": false,
                "top": 0,
                "first": {
                    "url": "https://other.weijianapp.com/artcloud-app-mgr-provider-user/20201217/facd2021-efba-456f-bc6c-06f2bcb12aa9.jpg",
                    "width": 800,
                    "height": 800
                }
            },
            {
                "articleId": "882281560286429594",
                "pictures": "https://other.weijianapp.com/artcloud-app-mgr-provider-user/20210831/e2c2bc0a-ad2b-401f-8097-0cb326264862.png?x-oss-process=image/resize,m_fill,h_1095,w_720",
                "title": "【修丽可💡发光瓶】真假鉴别❗",
                "description": "",
                "content": "修丽可 SkinCeuticals 是来自🇺🇸美国的专业科学护肤品牌，于1997年在美国成立。修丽可发光瓶又叫做修丽可臻白焕彩精华液，由✅3%传明酸+✅5%烟酰胺+✅1%曲酸和✅5%磺酸组成；主打✨美白祛斑，抗氧化；采用滴管设计，方便消费者控制用量，更加卫生。\n⚠️以下对比仅基于个人看法及相关了解。\n不排除个别鉴别点存在版本差异。\n只有此版本对比，其他版本仅供参考。\n请综合多个辨别点进行对比。\n文章实用期为3~4个月，过后请等待更新~\n🔶1、说明书\n\"\"正品说明书纸质较软。\n假货说明书纸质较硬，字体着墨深。\n\n🔶2、瓶身背面\n\"\"正品与假货瓶身背面LOGO形状和颜色相差较大。\n\n🔶3、挤压头\n\"\"正品挤压头底部无明显幅度。\n假货挤压头底部有梯形的幅度。\n\n🔶4、底部批号\n\"\"正品底部批号字体较粗，颜色深。\n假货底部批号字体较细，颜色浅。\n\n🔶5、盖内锯齿\n\"\"正品盖内锯齿呈梯形，形状偏大。\n假货盖内锯齿呈三角形，形状偏小，较密集。\n\n🔶6、液体\n\"\"正品液体颜色偏黄棕色，质地较稠。\n假货液体颜色偏淡黄色，质地较稀。\n\n💡以上仅供大家参考，假货版本很多无法一一做对比。\n美貌与智慧的小仙女们，都知道如何辨别了吗?\n我是小维，专注美妆鉴别；为正品保驾护航！\n😘我们下一期再见~\n",
                "praiseAmount": 209,
                "browseAmount": 569,
                "operateUserName": "维鉴福利官",
                "operateHeadImg": "http://images.weijianapp.com/artcloud-app-mgr-provider-user/20200415/081e7496-7501-4e52-96f9-9e09d5ce4875.blob",
                "praise": false,
                "top": 0,
                "first": {
                    "url": "https://other.weijianapp.com/artcloud-app-mgr-provider-user/20210831/e2c2bc0a-ad2b-401f-8097-0cb326264862.png",
                    "width": 720,
                    "height": 1095
                }
            },
            {
                "articleId": "1032305247160107377",
                "pictures": "https://other.weijianapp.com/artcloud-app-mgr-provider-user/20221019/5083a7d9-30b3-4652-aff2-15091f57bd08.jpg?x-oss-process=image/resize,m_fill,h_1400,w_1400",
                "title": "【雅诗兰黛智妍面霜】真假鉴别‼️",
                "description": "",
                "content": "⚠️以下对比仅基于个人看法及相关了解。\n\n不排除个别鉴别点存在版本差异。\n只有此版本对比，其他版本仅供参考。\n请综合多个辨别点进行对比。\n文章实用期为3~4个月，过后请等待更新~\n♦️1、包装盒正面\n\"\"\n♦️2、防震纸壳\n\"\"\n♦️3、瓶盖\n\"\"\n♦️4、瓶身底部\n\"\"\n♦️5、瓶口卡扣\n\"\"\n♦️6、盖内卡扣\n\"\"\n\n♦️7、盖内垫片\"\"\n📣以上仅供大家参考，假货版本很多无法一一做对比。\n美貌与智慧的小仙女们，都知道如何辨别了吗?\n我是小维，专注美妆鉴别；化妆品批号查询！为正品保驾护航！\n😘我们下一期再见~\n\n\n",
                "praiseAmount": 164,
                "browseAmount": 447,
                "operateUserName": "维鉴福利官",
                "operateHeadImg": "http://images.weijianapp.com/artcloud-app-mgr-provider-user/20200415/081e7496-7501-4e52-96f9-9e09d5ce4875.blob",
                "praise": false,
                "top": 0,
                "first": {
                    "url": "https://other.weijianapp.com/artcloud-app-mgr-provider-user/20221019/5083a7d9-30b3-4652-aff2-15091f57bd08.jpg",
                    "width": 1400,
                    "height": 1400
                }
            },
            {
                "articleId": "925069254343000104",
                "pictures": "https://other.weijianapp.com/artcloud-app-mgr-provider-user/20211227/4fe1f523-0029-4ecc-92e2-fa8d8a06264e.png?x-oss-process=image/resize,m_fill,h_1096,w_722",
                "title": "【艾珂薇急救面霜】真假鉴别‼️",
                "description": "",
                "content": "📣以下对比仅基于个人看法及相关了解。\n不排除个别鉴别点存在版本差异。\n只有此版本对比，其他版本仅供参考。\n请综合多个辨别点进行对比。\n文章实用期为3~4个月，过后请等待更新~\n🔷1、包装盒图案\n\"\"正品包装盒图案细节清晰。\n假货包装盒图案细节模糊。\n\n🔷2、瓶身螺纹处\n\"\"正品瓶身螺纹处呈透明。\n假货瓶身螺纹处与瓶身一个色。\n\n🔷3、瓶口螺纹\n\"\"正品瓶口螺纹头部一端是圆头。\n假货瓶口螺纹头部两端是圆头。\n\n🔷4、密封盖把手\n\"\"正品密封盖把手从上往下逐渐变细。\n假货密封盖把手呈圆柱形\n\n🔷5、密封盖\n\"\"正品密封盖在荧光灯下有荧光反应。\n假货密封盖在荧光灯下无荧光反应。\n\n🔷6、盖内锯齿\n\"\"正品盖内锯齿上方较平。\n假货盖内锯齿上方较尖。\n\n📣以上仅供大家参考，假货版本很多无法一一做对比。\n美貌与智慧的小仙女们，都知道如何辨别了吗?\n我是小维，专注美妆鉴别；化妆品批号查询！！为正品保驾护航！\n😘我们下一期再见~\n",
                "praiseAmount": 317,
                "browseAmount": 604,
                "operateUserName": "维鉴福利官",
                "operateHeadImg": "http://images.weijianapp.com/artcloud-app-mgr-provider-user/20200415/081e7496-7501-4e52-96f9-9e09d5ce4875.blob",
                "praise": false,
                "top": 0,
                "first": {
                    "url": "https://other.weijianapp.com/artcloud-app-mgr-provider-user/20211227/4fe1f523-0029-4ecc-92e2-fa8d8a06264e.png",
                    "width": 722,
                    "height": 1096
                }
            }
        ]
    }
}